…
~~It would be desirable to have a lot of game records for each possible combination of champions. However, for the period our dataset is from (games between 2015 and 2017), the number of champions in the game was between 125 and 135. This means that the number of possible combinations is around  $$ 2 \times \binom{135}{5} = 693400554$$, because the same champion can be picked in both teams). Our dataset contains the data for only 3645, so clearly we don't have such amounts of  data.~~



We take only the picked champions and the result of the game.

```R
picks_and_result <- LeagueofLegends[, c(6, 11, 13, 15, 17, 19, 21, 23, 25, 27, 28)]
```



```R
> picks_and_result
# A tibble: 3,645 × 11
   bResult blueTopChamp blueJungleChamp blueMiddleChamp blueADCChamp blueSupportChamp redTopChamp redJungleChamp redMiddleChamp redADCChamp redSupportChamp
     <int>        <chr>           <chr>           <chr>        <chr>            <chr>       <chr>          <chr>          <chr>       <chr>           <chr>
1        1       Irelia          RekSai            Ahri         Jinx            Janna        Gnar          Elise           Fizz       Sivir          Thresh
2        0         Gnar          Rengar            Ahri      Caitlyn            Leona      Irelia       JarvanIV           Azir       Corki           Annie
3        1     Renekton          Rengar            Fizz        Sivir            Annie        Sion         LeeSin           Azir       Corki           Janna
4        0       Irelia        JarvanIV         Leblanc        Sivir           Thresh        Gnar           Nunu           Lulu      KogMaw           Janna
5        1         Gnar        JarvanIV       Lissandra     Tristana            Janna        Sion         RekSai           Lulu       Corki           Annie
6        0     Kassadin          Rengar         Leblanc        Sivir            Annie        Gnar       JarvanIV           Lulu       Corki          Thresh
7        1       Irelia        JarvanIV          Xerath        Corki            Janna    Renekton         LeeSin        Leblanc    Tristana            Nami
8        1     Renekton        JarvanIV            Azir      Caitlyn            Annie      Rumble         Rengar        Leblanc       Sivir      Blitzcrank
9        0         Sion          RekSai         Orianna       KogMaw            Janna    Kassadin             Vi            Zed       Corki         Morgana
10       1       Irelia        Nocturne         Orianna        Sivir             Nami        Gnar         Rengar        Leblanc      Graves         Morgana
# ... with 3,635 more rows
```
…
